{
    "name": "trelliswidget",
    "pluginInfraVersion": 2,
    "source": [
        "stylerController.js",
        "widget.6.js"
    ],
    "style": [
        "widget.css"
    ],
    "folderName": "trellis",
    "lastUpdate": "2017-12-07T00:20:58.934Z",
    "isEnabled": true,
    "version": "1.1"
}